{
    "name": "ClientEmailDomain",
    "fields": [
        {
            "fieldName": "emailDomain",
            "fieldType": "String",
            "fieldValidateRules": [
                "required"
            ]
        },
        {
            "fieldName": "description",
            "fieldType": "String"
        },
        {
            "fieldName": "isActive",
            "fieldType": "Integer"
        }
    ],
    "relationships": [
        {
            "relationshipType": "many-to-one",
            "relationshipName": "client",
            "otherEntityName": "client",
            "otherEntityField": "clientName"
        }
    ],
    "changelogDate": "20181110115917",
    "entityTableName": "client_email_domain",
    "dto": "mapstruct",
    "pagination": "pagination",
    "service": "serviceImpl",
    "jpaMetamodelFiltering": false,
    "fluentMethods": true,
    "clientRootFolder": "",
    "applications": "*"
}